学校給食における地産地消
…
appId <- keyring::key_get("e-stat")
statsDataId <- "0003328454"

# メタ情報取得
(meta_info <- estat_getMetaInfo(appId = appId, statsDataId = statsDataId))

$tab
# A tibble: 1 × 4
  `@code` `@name`  `@level` `@unit`
  <chr>   <chr>    <chr>    <chr>  
1 100     使用割合 ""       比率   

$cat01
# A tibble: 284 × 4
   `@code` `@name`          `@level` `@parentCode`
   <chr>   <chr>            <chr>    <chr>        
 1 100     アーモンド       2        90           
 2 110     アイスクリーム類 2        90           
 3 120     あおさ           2        90           
 4 130     あおのり         2        90           
 5 140     あこうだい       2        90           
 6 150     あさつき         2        90           
 7 160     あさり           2        90           
 8 170     あしたば         2        90           
 9 180     あじ類           2        90           
10 190     あずき           2        90           
# ℹ 274 more rows
…
df2017[df2017$地場産物 == 1, c("食材別", "分類")]

# A tibble: 27 × 2
   食材別       分類  
   <chr>        <fct> 
 1 あまご       魚介類
 2 あゆ         魚介類
 3 いわな       魚介類
 4 えごま       穀物  
 5 からしな     葉菜類
 6 かわはぎ     魚介類
 7 ぐち         魚介類
 8 このしろ     魚介類
 9 さより       魚介類
10 さんとうさい その他
# ℹ 17 more rows
…
df2019[df2019$国産食材 == 0, c("食材別", "分類")]

# A tibble: 24 × 2
   食材別         分類  
   <chr>          <fct> 
 1 あこうだい     その他
 2 アセロラ       その他
 3 アラスカめぬけ その他
 4 うなぎ         その他
 5 カシューナッツ その他
 6 きす           その他
 7 くじら         魚介類
 8 くるみ         その他
 9 ザーサイ       その他
10 シルバー       その他
# ℹ 14 more rows
…
df2019[df2019$地場産物 == 1, c("食材別", "分類")]

# A tibble: 34 × 2
   食材別         分類  
   <chr>          <fct> 
 1 あしたば       葉菜類
 2 あゆ           魚介類
 3 いさき         その他
 4 いしだい       その他
 5 いのしし       肉    
 6 いぼだい       その他
 7 いわな         魚介類
 8 えごま         穀物  
 9 おおさかしろな その他
10 からしな       葉菜類
# ℹ 24 more rows
…
