小売価格
…
$tab
# A tibble: 1 × 3
  `@code` `@name` `@level`
  <chr>   <chr>   <chr>   
1 10      価格    ""      

$cat01
# A tibble: 1 × 4
  `@code` `@name` `@level` `@unit`
  <chr>   <chr>   <chr>    <chr>  
1 0020    価格    1        円     

$cat02
# A tibble: 857 × 3
   `@code` `@name`                                         `@level`
   <chr>   <chr>                                           <chr>   
 1 01001   1001 うるち米(単一原料米,「コシヒカリ」)        1       
 2 01002   1002 うるち米(単一原料米,「コシヒカリ」以外)    1       
 3 01003   1003 うるち米(複数原料米)【2011年12月調査終了】 1       
 4 01005   1005 うるち米(指定標準米)【2004年03月調査終了】 1       
 5 01007   1007 うるち米(外国産)【2001年12月調査終了】     1       
 6 01011   1011 もち米【2021年12月調査終了】               1       
 7 01021   1021 食パン                                     1       
 8 01022   1022 あんパン                                   1       
 9 01023   1023 カレーパン                                 1       
10 01031   1031 ゆでうどん                                 1       
# ℹ 847 more rows

$area
# A tibble: 93 × 3
   `@code` `@name`                                        `@level`
   <chr>   <chr>                                          <chr>   
 1 01100   札幌市                                         1       
 2 01202   函館市                                         1       
 3 01204   旭川市                                         1       
 4 02201   青森市                                         1       
 5 02203   八戸市                                         1       
 6 03201   盛岡市                                         1       
 7 04100   仙台市                                         1       
 8 04202   石巻市【2019年12月都市階級変更により掲載終了】 1       
 9 05201   秋田市                                         1       
10 06201   山形市                                         1       
# ℹ 83 more rows

$time
# A tibble: 291 × 4
   `@code`    `@name`    `@level` `@parentCode`
   <chr>      <chr>      <chr>    <chr>        
 1 2024000303 2024年3月  2        2024000000   
 2 2024000202 2024年2月  2        2024000000   
 3 2024000101 2024年1月  2        2024000000   
 4 2023001212 2023年12月 2        2023000000   
 5 2023001111 2023年11月 2        2023000000   
 6 2023001010 2023年10月 2        2023000000   
 7 2023000909 2023年9月  2        2023000000   
 8 2023000808 2023年8月  2        2023000000   
 9 2023000707 2023年7月  2        2023000000   
10 2023000606 2023年6月  2        2023000000   
# ℹ 281 more rows
…
